Journal (reproducible report)
…
library(tidyverse)
library(readxl)

1.2 Import files:

bikes_tbl <- readxl::read_excel("./00_data/01_bike_sales/01_raw_data/bikes.xlsx")
orderlines_tbl <- readxl::read_excel("./00_data/01_bike_sales/01_raw_data/orderlines.xlsx")
bikeshops_tbl <- readxl::read_excel("./00_data/01_bike_sales/01_raw_data/bikeshops.xlsx")

1.3 Examine data for imported tables:

bikeshops_tbl

## # A tibble: 30 x 5
##    bikeshop.id name                  location                          lat   lng
##          <dbl> <chr>                 <chr>                           <dbl> <dbl>
##  1           1 Zum Goldenen Lenker   Berlin, Berlin                   52.5 13.4 
##  2           2 AlexandeRad           Hamburg, Hamburg                 53.6 10.0 
##  3           3 Fahrradladen 16       Munich, Bavaria                  48.2 11.6 
##  4           4 Bikestation Köln      Cologne, North Rhine-Westphalia  50.9  6.95
##  5           5 Montimare             Frankfurt, Hesse                 50.1  8.68
##  6           6 fahrschneller         Stuttgart, Baden-Württemberg     48.8  9.18
##  7           7 Rad Ab                Düsseldorf, North Rhine-Westph…  51.2  6.79
##  8           8 Lucky Bike            Dortmund, North Rhine-Westphal…  51.5  7.47
##  9           9 Zweirad-Center Stadl… Essen, North Rhine-Westphalia    51.5  7.01
## 10          10 WITT-RAD              Bremen, Bremen                   53.1  8.83
## # … with 20 more rows

orderlines_tbl

## # A tibble: 15,644 x 7
##    ...1  order.id order.line order.date          customer.id product.id quantity
##    <chr>    <dbl>      <dbl> <dttm>                    <dbl>      <dbl>    <dbl>
##  1 1            1          1 2015-01-07 00:00:00           2       2681        1
##  2 2            1          2 2015-01-07 00:00:00           2       2411        1
##  3 3            2          1 2015-01-10 00:00:00          10       2629        1
##  4 4            2          2 2015-01-10 00:00:00          10       2137        1
##  5 5            3          1 2015-01-10 00:00:00           6       2367        1
##  6 6            3          2 2015-01-10 00:00:00           6       1973        1
##  7 7            3          3 2015-01-10 00:00:00           6       2422        1
##  8 8            3          4 2015-01-10 00:00:00           6       2655        1
##  9 9            3          5 2015-01-10 00:00:00           6       2247        1
## 10 10           4          1 2015-01-11 00:00:00          22       2408        1
## # … with 15,634 more rows

bikes_tbl

## # A tibble: 231 x 9
##    bike.id model  model.year frame.material weight price category gender url    
##      <dbl> <chr>       <dbl> <chr>           <dbl> <dbl> <chr>    <chr>  <chr>  
##  1    2875 Aeroa…       2020 carbon           7.6   4579 Road - … unisex https:…
##  2    2873 Aeroa…       2020 carbon           7.27  6919 Road - … unisex https:…
##  3    2874 Aeroa…       2020 carbon           7.1   6429 Road - … unisex https:…
##  4    2876 Aeroa…       2020 carbon           7.73  5069 Road - … unisex https:…
##  5    2877 Aeroa…       2020 carbon           7.83  3609 Road - … unisex https:…
##  6    2225 Aeroa…       2019 carbon           6.8   6139 Road - … unisex https:…
##  7    2091 Aeroa…       2019 carbon           6.8   5359 Road - … unisex https:…
##  8    2086 Aeroa…       2021 carbon           7.6   2629 Road - … unisex https:…
##  9    2088 Aeroa…       2020 carbon           7.3   3699 Road - … unisex https:…
## 10    2120 Aeroa…       2020 carbon           7.2   3219 Road - … female https:…
## # … with 221 more rows
…
1.5 Wrangling data:

bike_orderlines_wrangled_tbl <- bike_orderlines_joined_tbl %>%
    tidyr::separate(col    = location,
           into   = c("city", "state"),
           sep    = ", ") %>%
  dplyr::mutate(total_price = price * quantity) %>%
  dplyr::select(order.id, contains("order"), city, state, quantity, total_price, everything()) %>%
  rename(bikeshop = name) %>%
  magrittr::set_names(names(.) %>% stringr::str_replace_all("\\.", "_"))

bike_orderlines_wrangled_tbl

## # A tibble: 15,644 x 21
##    order_id order_line order_date          city  state quantity total_price
##       <dbl>      <dbl> <dttm>              <chr> <chr>    <dbl>       <dbl>
##  1        1          1 2015-01-07 00:00:00 Hamb… Hamb…        1        3119
##  2        1          2 2015-01-07 00:00:00 Hamb… Hamb…        1        5359
##  3        2          1 2015-01-10 00:00:00 Brem… Brem…        1        2729
##  4        2          2 2015-01-10 00:00:00 Brem… Brem…        1        1749
##  5        3          1 2015-01-10 00:00:00 Stut… Bade…        1        1219
##  6        3          2 2015-01-10 00:00:00 Stut… Bade…        1        1359
##  7        3          3 2015-01-10 00:00:00 Stut… Bade…        1        2529
##  8        3          4 2015-01-10 00:00:00 Stut… Bade…        1        1559
##  9        3          5 2015-01-10 00:00:00 Stut… Bade…        1        3899
## 10        4          1 2015-01-11 00:00:00 Augs… Bava…        1        6629
## # … with 15,634 more rows, and 14 more variables: `___1` <chr>,
## #   customer_id <dbl>, product_id <dbl>, model <chr>, model_year <dbl>,
## #   frame_material <chr>, weight <dbl>, price <dbl>, category <chr>,
## #   gender <chr>, url <chr>, bikeshop <chr>, lat <dbl>, lng <dbl>
…
Creating relevant tables and using gglpot2 package for data visualization.

sales_by_states_tbl <- bike_orderlines_wrangled_tbl %>%
  select(order_date, total_price, state) %>%
  mutate(year = year(order_date)) %>%
  group_by(year, state) %>%
  summarise(sales = sum(total_price)) %>%
  ungroup() %>%
  mutate(sales_text = scales::dollar(sales, big.mark = ".",
                                            decimal.mark = ",",
                                            prefix = "",
                                            suffix = " €"))
sales_by_states_tbl

## # A tibble: 60 x 4
##     year state                           sales sales_text 
##    <dbl> <chr>                           <dbl> <chr>      
##  1  2015 Baden-Württemberg             1031924 1.031.924 €
##  2  2015 Bavaria                       1301461 1.301.461 €
##  3  2015 Berlin                          95853 95.853 €   
##  4  2015 Bremen                        1395912 1.395.912 €
##  5  2015 Hamburg                        423090 423.090 €  
##  6  2015 Hesse                          308609 308.609 €  
##  7  2015 Lower Saxony                   584386 584.386 €  
##  8  2015 Mecklenburg-Western Pomerania  222003 222.003 €  
##  9  2015 North Rhine-Westphalia        3735092 3.735.092 €
## 10  2015 Saxony                         238371 238.371 €  
## # … with 50 more rows
…
